projet_initial
…
data_keno <- data_keno %>% mutate(date_de_tirage = as.Date(data_keno$date_de_tirage, format = '%d/%m/%Y'))

difftime(max(data_keno$date_de_tirage), min(data_keno$date_de_tirage))

Time difference of 99 days

keno

# A tibble: 1,600 × 3
   date_de_tirage boule valeur
   <chr>          <chr>  <int>
 1 10/02/2026     1         12
 2 10/02/2026     2         13
 3 10/02/2026     3         17
 4 10/02/2026     4         20
 5 10/02/2026     5         22
 6 10/02/2026     6         23
 7 10/02/2026     7         26
 8 10/02/2026     8         27
 9 10/02/2026     9         39
10 10/02/2026     10        42
# ℹ 1,590 more rows
…
Attaching package: 'scales'

The following object is masked from 'package:purrr':

    discard

The following object is masked from 'package:readr':

    col_factor

nombre_dates <- length(unique(keno$date_de_tirage)) # Calcul nombre de dates distinct
keno %>% summarise(count = n(), freq = percent(count/nombre_dates), .by = "valeur") %>% arrange(valeur) -> unique_keno
unique_keno

# A tibble: 56 × 3
   valeur count freq 
    <int> <int> <chr>
 1      1    30 30%  
 2      2    26 26%  
 3      3    28 28%  
 4      4    32 32%  
 5      5    17 17%  
 6      6    21 21%  
 7      7    37 37%  
 8      8    23 23%  
 9      9    33 33%  
10     10    30 30%  
# ℹ 46 more rows
…
